lab05/mbox/waveform.vcd
$date
	Wed Jan 29 09:38:40 2025
$end

$version
	Synopsys VCS version W-2024.09-SP1
$end

$timescale
	1ns
$end

$comment Csum: 1 4c2af830b99c68ea $end


$scope module top $end
$var reg 1 ! clk $end

$scope module mif $end
$var reg 1 " clk $end
$var reg 1 # read $end
$var reg 1 $ write $end
$var reg 5 % addr [4:0] $end
$var reg 8 & data_in [7:0] $end
$var reg 8 ' data_out [7:0] $end

$scope task write_mem $end
$var reg 5 ( waddr [4:0] $end
$var reg 8 ) wdata [7:0] $end
$var reg 1 * debug $end
$upscope $end


$scope task read_mem $end
$var reg 5 + raddr [4:0] $end
$var reg 8 , rdata [7:0] $end
$var reg 1 - debug $end
$upscope $end

$upscope $end


$scope module test $end
$var reg 1 . debug $end
$var reg 8 / rdata [7:0] $end
$var reg 32 0 error_status [31:0] $end

$scope begin memtest $end

$scope begin unnamed$$_0 $end
$upscope $end


$scope begin unnamed$$_1 $end
$upscope $end


$scope begin unnamed$$_2 $end
$upscope $end


$scope begin unnamed$$_3 $end
$upscope $end


$scope fork unnamed$$_vcs_0 $end

$scope begin unnamed$$_vcs_1 $end
$upscope $end


$scope begin unnamed$$_vcs_2 $end
$upscope $end


$scope begin unnamed$$_vcs_3 $end
$upscope $end


$scope begin unnamed$$_vcs_4 $end
$upscope $end


$scope begin unnamed$$_vcs_5 $end
$upscope $end

$upscope $end

$upscope $end


$scope begin unnamed$$_vcs_0 $end
$upscope $end


$scope begin unnamed$$_vcs_1 $end
$upscope $end

$upscope $end


$scope module memory $end
$upscope $end

$upscope $end

$enddefinitions $end

#0
$dumpvars
0!
1.
bxxxxxxxx /
b00000000000000000000000000000000 0
x-
1*
bxxxxxxxx '
bxxxxxxxx &
bxxxxx %
bxxxxx +
bxxxxxxxx ,
b00000 (
b00000000 )
0"
x#
x$
$end
#5
1!
1"
#10
0!
0"
1$
0#
b00000 %
b00000000 &
#15
1!
1"
#20
0!
0"
b00001 (
0$
#25
1!
1"
#30
0!
0"
1$
b00001 %
#35
1!
1"
#40
0!
0"
b00010 (
0$
#45
1!
1"
#50
0!
0"
1$
b00010 %
#55
1!
1"
#60
0!
0"
b00011 (
0$
#65
1!
1"
#70
0!
0"
1$
b00011 %
#75
1!
1"
#80
0!
0"
b00100 (
0$
#85
1!
1"
#90
0!
0"
1$
b00100 %
#95
1!
1"
#100
0!
0"
b00101 (
0$
#105
1!
1"
#110
0!
0"
1$
b00101 %
#115
1!
1"
#120
0!
0"
b00110 (
0$
#125
1!
1"
#130
0!
0"
1$
b00110 %
#135
1!
1"
#140
0!
0"
b00111 (
0$
#145
1!
1"
#150
0!
0"
1$
b00111 %
#155
1!
1"
#160
0!
0"
b01000 (
0$
#165
1!
1"
#170
0!
0"
1$
b01000 %
#175
1!
1"
#180
0!
0"
b01001 (
0$
#185
1!
1"
#190
0!
0"
1$
b01001 %
#195
1!
1"
#200
0!
0"
b01010 (
0$
#205
1!
1"
#210
0!
0"
1$
b01010 %
#215
1!
1"
#220
0!
0"
b01011 (
0$
#225
1!
1"
#230
0!
0"
1$
b01011 %
#235
1!
1"
#240
0!
0"
b01100 (
0$
#245
1!
1"
#250
0!
0"
1$
b01100 %
#255
1!
1"
#260
0!
0"
b01101 (
0$
#265
1!
1"
#270
0!
0"
1$
b01101 %
#275
1!
1"
#280
0!
0"
b01110 (
0$
#285
1!
1"
#290
0!
0"
1$
b01110 %
#295
1!
1"
#300
0!
0"
b01111 (
0$
#305
1!
1"
#310
0!
0"
1$
b01111 %
#315
1!
1"
#320
0!
0"
b10000 (
0$
#325
1!
1"
#330
0!
0"
1$
b10000 %
#335
1!
1"
#340
0!
0"
b10001 (
0$
#345
1!
1"
#350
0!
0"
1$
b10001 %
#355
1!
1"
#360
0!
0"
b10010 (
0$
#365
1!
1"
#370
0!
0"
1$
b10010 %
#375
1!
1"
#380
0!
0"
b10011 (
0$
#385
1!
1"
#390
0!
0"
1$
b10011 %
#395
1!
1"
#400
0!
0"
b10100 (
0$
#405
1!
1"
#410
0!
0"
1$
b10100 %
#415
1!
1"
#420
0!
0"
b10101 (
0$
#425
1!
1"
#430
0!
0"
1$
b10101 %
#435
1!
1"
#440
0!
0"
b10110 (
0$
#445
1!
1"
#450
0!
0"
1$
b10110 %
#455
1!
1"
#460
0!
0"
b10111 (
0$
#465
1!
1"
#470
0!
0"
1$
b10111 %
#475
1!
1"
#480
0!
0"
b11000 (
0$
#485
1!
1"
#490
0!
0"
1$
b11000 %
#495
1!
1"
#500
0!
0"
b11001 (
0$
#505
1!
1"
#510
0!
0"
1$
b11001 %
#515
1!
1"
#520
0!
0"
b11010 (
0$
#525
1!
1"
#530
0!
0"
1$
b11010 %
#535
1!
1"
#540
0!
0"
b11011 (
0$
#545
1!
1"
#550
0!
0"
1$
b11011 %
#555
1!
1"
#560
0!
0"
b11100 (
0$
#565
1!
1"
#570
0!
0"
1$
b11100 %
#575
1!
1"
#580
0!
0"
b11101 (
0$
#585
1!
1"
#590
0!
0"
1$
b11101 %
#595
1!
1"
#600
0!
0"
b11110 (
0$
#605
1!
1"
#610
0!
0"
1$
b11110 %
#615
1!
1"
#620
0!
0"
b11111 (
0$
#625
1!
1"
#630
0!
0"
1$
b11111 %
#635
1!
1"
#640
0!
0"
b00000 +
1-
0$
#645
1!
1"
#650
0!
0"
1#
b00000 %
#655
1!
1"
b00000000 '
#660
0!
0"
b00000000 ,
b00000000 /
b00001 +
0#
#665
1!
1"
#670
0!
0"
1#
b00001 %
#675
1!
1"
#680
0!
0"
b00010 +
0#
#685
1!
1"
#690
0!
0"
1#
b00010 %
#695
1!
1"
#700
0!
0"
b00011 +
0#
#705
1!
1"
#710
0!
0"
1#
b00011 %
#715
1!
1"
#720
0!
0"
b00100 +
0#
#725
1!
1"
#730
0!
0"
1#
b00100 %
#735
1!
1"
#740
0!
0"
b00101 +
0#
#745
1!
1"
#750
0!
0"
1#
b00101 %
#755
1!
1"
#760
0!
0"
b00110 +
0#
#765
1!
1"
#770
0!
0"
1#
b00110 %
#775
1!
1"
#780
0!
0"
b00111 +
0#
#785
1!
1"
#790
0!
0"
1#
b00111 %
#795
1!
1"
#800
0!
0"
b01000 +
0#
#805
1!
1"
#810
0!
0"
1#
b01000 %
#815
1!
1"
#820
0!
0"
b01001 +
0#
#825
1!
1"
#830
0!
0"
1#
b01001 %
#835
1!
1"
#840
0!
0"
b01010 +
0#
#845
1!
1"
#850
0!
0"
1#
b01010 %
#855
1!
1"
#860
0!
0"
b01011 +
0#
#865
1!
1"
#870
0!
0"
1#
b01011 %
#875
1!
1"
#880
0!
0"
b01100 +
0#
#885
1!
1"
#890
0!
0"
1#
b01100 %
#895
1!
1"
#900
0!
0"
b01101 +
0#
#905
1!
1"
#910
0!
0"
1#
b01101 %
#915
1!
1"
#920
0!
0"
b01110 +
0#
#925
1!
1"
#930
0!
0"
1#
b01110 %
#935
1!
1"
#940
0!
0"
b01111 +
0#
#945
1!
1"
#950
0!
0"
1#
b01111 %
#955
1!
1"
#960
0!
0"
b10000 +
0#
#965
1!
1"
#970
0!
0"
1#
b10000 %
#975
1!
1"
#980
0!
0"
b10001 +
0#
#985
1!
1"
#990
0!
0"
1#
b10001 %
#995
1!
1"
#1000
0!
0"
b10010 +
0#
#1005
1!
1"
#1010
0!
0"
1#
b10010 %
#1015
1!
1"
#1020
0!
0"
b10011 +
0#
#1025
1!
1"
#1030
0!
0"
1#
b10011 %
#1035
1!
1"
#1040
0!
0"
b10100 +
0#
#1045
1!
1"
#1050
0!
0"
1#
b10100 %
#1055
1!
1"
#1060
0!
0"
b10101 +
0#
#1065
1!
1"
#1070
0!
0"
1#
b10101 %
#1075
1!
1"
#1080
0!
0"
b10110 +
0#
#1085
1!
1"
#1090
0!
0"
1#
b10110 %
#1095
1!
1"
#1100
0!
0"
b10111 +
0#
#1105
1!
1"
#1110
0!
0"
1#
b10111 %
#1115
1!
1"
#1120
0!
0"
b11000 +
0#
#1125
1!
1"
#1130
0!
0"
1#
b11000 %
#1135
1!
1"
#1140
0!
0"
b11001 +
0#
#1145
1!
1"
#1150
0!
0"
1#
b11001 %
#1155
1!
1"
#1160
0!
0"
b11010 +
0#
#1165
1!
1"
#1170
0!
0"
1#
b11010 %
#1175
1!
1"
#1180
0!
0"
b11011 +
0#
#1185
1!
1"
#1190
0!
0"
1#
b11011 %
#1195
1!
1"
#1200
0!
0"
b11100 +
0#
#1205
1!
1"
#1210
0!
0"
1#
b11100 %
#1215
1!
1"
#1220
0!
0"
b11101 +
0#
#1225
1!
1"
#1230
0!
0"
1#
b11101 %
#1235
1!
1"
#1240
0!
0"
b11110 +
0#
#1245
1!
1"
#1250
0!
0"
1#
b11110 %
#1255
1!
1"
#1260
0!
0"
b11111 +
0#
#1265
1!
1"
#1270
0!
0"
1#
b11111 %
#1275
1!
1"
#1280
0!
0"
b00000 (
0#
#1285
1!
1"
#1290
0!
0"
1$
b00000 %
#1295
1!
1"
#1300
0!
0"
b00001 (
b00000001 )
0$
#1305
1!
1"
#1310
0!
0"
1$
b00001 %
b00000001 &
#1315
1!
1"
#1320
0!
0"
b00010 (
b00000010 )
0$
#1325
1!
1"
#1330
0!
0"
1$
b00010 %
b00000010 &
#1335
1!
1"
#1340
0!
0"
b00011 (
b00000011 )
0$
#1345
1!
1"
#1350
0!
0"
1$
b00011 %
b00000011 &
#1355
1!
1"
#1360
0!
0"
b00100 (
b00000100 )
0$
#1365
1!
1"
#1370
0!
0"
1$
b00100 %
b00000100 &
#1375
1!
1"
#1380
0!
0"
b00101 (
b00000101 )
0$
#1385
1!
1"
#1390
0!
0"
1$
b00101 %
b00000101 &
#1395
1!
1"
#1400
0!
0"
b00110 (
b00000110 )
0$
#1405
1!
1"
#1410
0!
0"
1$
b00110 %
b00000110 &
#1415
1!
1"
#1420
0!
0"
b00111 (
b00000111 )
0$
#1425
1!
1"
#1430
0!
0"
1$
b00111 %
b00000111 &
#1435
1!
1"
#1440
0!
0"
b01000 (
b00001000 )
0$
#1445
1!
1"
#1450
0!
0"
1$
b01000 %
b00001000 &
#1455
1!
1"
#1460
0!
0"
b01001 (
b00001001 )
0$
#1465
1!
1"
#1470
0!
0"
1$
b01001 %
b00001001 &
#1475
1!
1"
#1480
0!
0"
b01010 (
b00001010 )
0$
#1485
1!
1"
#1490
0!
0"
1$
b01010 %
b00001010 &
#1495
1!
1"
#1500
0!
0"
b01011 (
b00001011 )
0$
#1505
1!
1"
#1510
0!
0"
1$
b01011 %
b00001011 &
#1515
1!
1"
#1520
0!
0"
b01100 (
b00001100 )
0$
#1525
1!
1"
#1530
0!
0"
1$
b01100 %
b00001100 &
#1535
1!
1"
#1540
0!
0"
b01101 (
b00001101 )
0$
#1545
1!
1"
#1550
0!
0"
1$
b01101 %
b00001101 &
#1555
1!
1"
#1560
0!
0"
b01110 (
b00001110 )
0$
#1565
1!
1"
#1570
0!
0"
1$
b01110 %
b00001110 &
#1575
1!
1"
#1580
0!
0"
b01111 (
b00001111 )
0$
#1585
1!
1"
#1590
0!
0"
1$
b01111 %
b00001111 &
#1595
1!
1"
#1600
0!
0"
b10000 (
b00010000 )
0$
#1605
1!
1"
#1610
0!
0"
1$
b10000 %
b00010000 &
#1615
1!
1"
#1620
0!
0"
b10001 (
b00010001 )
0$
#1625
1!
1"
#1630
0!
0"
1$
b10001 %
b00010001 &
#1635
1!
1"
#1640
0!
0"
b10010 (
b00010010 )
0$
#1645
1!
1"
#1650
0!
0"
1$
b10010 %
b00010010 &
#1655
1!
1"
#1660
0!
0"
b10011 (
b00010011 )
0$
#1665
1!
1"
#1670
0!
0"
1$
b10011 %
b00010011 &
#1675
1!
1"
#1680
0!
0"
b10100 (
b00010100 )
0$
#1685
1!
1"
#1690
0!
0"
1$
b10100 %
b00010100 &
#1695
1!
1"
#1700
0!
0"
b10101 (
b00010101 )
0$
#1705
1!
1"
#1710
0!
0"
1$
b10101 %
b00010101 &
#1715
1!
1"
#1720
0!
0"
b10110 (
b00010110 )
0$
#1725
1!
1"
#1730
0!
0"
1$
b10110 %
b00010110 &
#1735
1!
1"
#1740
0!
0"
b10111 (
b00010111 )
0$
#1745
1!
1"
#1750
0!
0"
1$
b10111 %
b00010111 &
#1755
1!
1"
#1760
0!
0"
b11000 (
b00011000 )
0$
#1765
1!
1"
#1770
0!
0"
1$
b11000 %
b00011000 &
#1775
1!
1"
#1780
0!
0"
b11001 (
b00011001 )
0$
#1785
1!
1"
#1790
0!
0"
1$
b11001 %
b00011001 &
#1795
1!
1"
#1800
0!
0"
b11010 (
b00011010 )
0$
#1805
1!
1"
#1810
0!
0"
1$
b11010 %
b00011010 &
#1815
1!
1"
#1820
0!
0"
b11011 (
b00011011 )
0$
#1825
1!
1"
#1830
0!
0"
1$
b11011 %
b00011011 &
#1835
1!
1"
#1840
0!
0"
b11100 (
b00011100 )
0$
#1845
1!
1"
#1850
0!
0"
1$
b11100 %
b00011100 &
#1855
1!
1"
#1860
0!
0"
b11101 (
b00011101 )
0$
#1865
1!
1"
#1870
0!
0"
1$
b11101 %
b00011101 &
#1875
1!
1"
#1880
0!
0"
b11110 (
b00011110 )
0$
#1885
1!
1"
#1890
0!
0"
1$
b11110 %
b00011110 &
#1895
1!
1"
#1900
0!
0"
b11111 (
b00011111 )
0$
#1905
1!
1"
#1910
0!
0"
1$
b11111 %
b00011111 &
#1915
1!
1"
#1920
0!
0"
b00000 +
0$
#1925
1!
1"
#1930
0!
0"
1#
b00000 %
#1935
1!
1"
#1940
0!
0"
b00001 +
0#
#1945
1!
1"
#1950
0!
0"
1#
b00001 %
#1955
1!
1"
b00000001 '
#1960
0!
0"
b00000001 ,
b00000001 /
b00010 +
0#
#1965
1!
1"
#1970
0!
0"
1#
b00010 %
#1975
1!
1"
b00000010 '
#1980
0!
0"
b00000010 ,
b00000010 /
b00011 +
0#
#1985
1!
1"
#1990
0!
0"
1#
b00011 %
#1995
1!
1"
b00000011 '
#2000
0!
0"
b00000011 ,
b00000011 /
b00100 +
0#
#2005
1!
1"
#2010
0!
0"
1#
b00100 %
#2015
1!
1"
b00000100 '
#2020
0!
0"
b00000100 ,
b00000100 /
b00101 +
0#
#2025
1!
1"
#2030
0!
0"
1#
b00101 %
#2035
1!
1"
b00000101 '
#2040
0!
0"
b00000101 ,
b00000101 /
b00110 +
0#
#2045
1!
1"
#2050
0!
0"
1#
b00110 %
#2055
1!
1"
b00000110 '
#2060
0!
0"
b00000110 ,
b00000110 /
b00111 +
0#
#2065
1!
1"
#2070
0!
0"
1#
b00111 %
#2075
1!
1"
b00000111 '
#2080
0!
0"
b00000111 ,
b00000111 /
b01000 +
0#
#2085
1!
1"
#2090
0!
0"
1#
b01000 %
#2095
1!
1"
b00001000 '
#2100
0!
0"
b00001000 ,
b00001000 /
b01001 +
0#
#2105
1!
1"
#2110
0!
0"
1#
b01001 %
#2115
1!
1"
b00001001 '
#2120
0!
0"
b00001001 ,
b00001001 /
b01010 +
0#
#2125
1!
1"
#2130
0!
0"
1#
b01010 %
#2135
1!
1"
b00001010 '
#2140
0!
0"
b00001010 ,
b00001010 /
b01011 +
0#
#2145
1!
1"
#2150
0!
0"
1#
b01011 %
#2155
1!
1"
b00001011 '
#2160
0!
0"
b00001011 ,
b00001011 /
b01100 +
0#
#2165
1!
1"
#2170
0!
0"
1#
b01100 %
#2175
1!
1"
b00001100 '
#2180
0!
0"
b00001100 ,
b00001100 /
b01101 +
0#
#2185
1!
1"
#2190
0!
0"
1#
b01101 %
#2195
1!
1"
b00001101 '
#2200
0!
0"
b00001101 ,
b00001101 /
b01110 +
0#
#2205
1!
1"
#2210
0!
0"
1#
b01110 %
#2215
1!
1"
b00001110 '
#2220
0!
0"
b00001110 ,
b00001110 /
b01111 +
0#
#2225
1!
1"
#2230
0!
0"
1#
b01111 %
#2235
1!
1"
b00001111 '
#2240
0!
0"
b00001111 ,
b00001111 /
b10000 +
0#
#2245
1!
1"
#2250
0!
0"
1#
b10000 %
#2255
1!
1"
b00010000 '
#2260
0!
0"
b00010000 ,
b00010000 /
b10001 +
0#
#2265
1!
1"
#2270
0!
0"
1#
b10001 %
#2275
1!
1"
b00010001 '
#2280
0!
0"
b00010001 ,
b00010001 /
b10010 +
0#
#2285
1!
1"
#2290
0!
0"
1#
b10010 %
#2295
1!
1"
b00010010 '
#2300
0!
0"
b00010010 ,
b00010010 /
b10011 +
0#
#2305
1!
1"
#2310
0!
0"
1#
b10011 %
#2315
1!
1"
b00010011 '
#2320
0!
0"
b00010011 ,
b00010011 /
b10100 +
0#
#2325
1!
1"
#2330
0!
0"
1#
b10100 %
#2335
1!
1"
b00010100 '
#2340
0!
0"
b00010100 ,
b00010100 /
b10101 +
0#
#2345
1!
1"
#2350
0!
0"
1#
b10101 %
#2355
1!
1"
b00010101 '
#2360
0!
0"
b00010101 ,
b00010101 /
b10110 +
0#
#2365
1!
1"
#2370
0!
0"
1#
b10110 %
#2375
1!
1"
b00010110 '
#2380
0!
0"
b00010110 ,
b00010110 /
b10111 +
0#
#2385
1!
1"
#2390
0!
0"
1#
b10111 %
#2395
1!
1"
b00010111 '
#2400
0!
0"
b00010111 ,
b00010111 /
b11000 +
0#
#2405
1!
1"
#2410
0!
0"
1#
b11000 %
#2415
1!
1"
b00011000 '
#2420
0!
0"
b00011000 ,
b00011000 /
b11001 +
0#
#2425
1!
1"
#2430
0!
0"
1#
b11001 %
#2435
1!
1"
b00011001 '
#2440
0!
0"
b00011001 ,
b00011001 /
b11010 +
0#
#2445
1!
1"
#2450
0!
0"
1#
b11010 %
#2455
1!
1"
b00011010 '
#2460
0!
0"
b00011010 ,
b00011010 /
b11011 +
0#
#2465
1!
1"
#2470
0!
0"
1#
b11011 %
#2475
1!
1"
b00011011 '
#2480
0!
0"
b00011011 ,
b00011011 /
b11100 +
0#
#2485
1!
1"
#2490
0!
0"
1#
b11100 %
#2495
1!
1"
b00011100 '
#2500
0!
0"
b00011100 ,
b00011100 /
b11101 +
0#
#2505
1!
1"
#2510
0!
0"
1#
b11101 %
#2515
1!
1"
b00011101 '
#2520
0!
0"
b00011101 ,
b00011101 /
b11110 +
0#
#2525
1!
1"
#2530
0!
0"
1#
b11110 %
#2535
1!
1"
b00011110 '
#2540
0!
0"
b00011110 ,
b00011110 /
b11111 +
0#
#2545
1!
1"
#2550
0!
0"
1#
b11111 %
#2555
1!
1"
b00011111 '
#2560
0!
0"
b00011111 ,
b00011111 /
b01111 (
b01111010 )
0#
#2565
1!
1"
#2570
0!
0"
1$
b01111 %
b01111010 &
#2575
1!
1"
#2580
0!
0"
b01111 +
0$
#2585
1!
1"
#2590
0!
0"
1#
#2595
1!
1"
b01111010 '
#2600
0!
0"
b01111010 ,
b01111010 /
b00110 (
b01110101 )
0#
#2605
1!
1"
#2610
0!
0"
1$
b00110 %
b01110101 &
#2615
1!
1"
#2620
0!
0"
b00110 +
0$
#2625
1!
1"
#2630
0!
0"
1#
#2635
1!
1"
b01110101 '
#2640
0!
0"
b01110101 ,
b01110101 /
b01110 (
b01101000 )
0#
#2645
1!
1"
#2650
0!
0"
1$
b01110 %
b01101000 &
#2655
1!
1"
#2660
0!
0"
b01110 +
0$
#2665
1!
1"
#2670
0!
0"
1#
#2675
1!
1"
b01101000 '
#2680
0!
0"
b01101000 ,
b01101000 /
b11110 (
b01100011 )
0#
#2685
1!
1"
#2690
0!
0"
1$
b11110 %
b01100011 &
#2695
1!
1"
#2700
0!
0"
b11110 +
0$
#2705
1!
1"
#2710
0!
0"
1#
#2715
1!
1"
b01100011 '
#2720
0!
0"
b01100011 ,
b01100011 /
b11111 (
b01101110 )
0#
#2725
1!
1"
#2730
0!
0"
1$
b11111 %
b01101110 &
#2735
1!
1"
#2740
0!
0"
b11111 +
0$
#2745
1!
1"
#2750
0!
0"
1#
#2755
1!
1"
b01101110 '
#2760
0!
0"
b01101110 ,
b01101110 /
b00101 (
b01110001 )
0#
#2765
1!
1"
#2770
0!
0"
1$
b00101 %
b01110001 &
#2775
1!
1"
#2780
0!
0"
b00101 +
0$
#2785
1!
1"
#2790
0!
0"
1#
#2795
1!
1"
b01110001 '
#2800
0!
0"
b01110001 ,
b01110001 /
b01011 (
b01100100 )
0#
#2805
1!
1"
#2810
0!
0"
1$
b01011 %
b01100100 &
#2815
1!
1"
#2820
0!
0"
b01011 +
0$
#2825
1!
1"
#2830
0!
0"
1#
#2835
1!
1"
b01100100 '
#2840
0!
0"
b01100100 ,
b01100100 /
b01101 (
b01101011 )
0#
#2845
1!
1"
#2850
0!
0"
1$
b01101 %
b01101011 &
#2855
1!
1"
#2860
0!
0"
b01101 +
0$
#2865
1!
1"
#2870
0!
0"
1#
#2875
1!
1"
b01101011 '
#2880
0!
0"
b01101011 ,
b01101011 /
b00000 (
b01110010 )
0#
#2885
1!
1"
#2890
0!
0"
1$
b00000 %
b01110010 &
#2895
1!
1"
#2900
0!
0"
b00000 +
0$
#2905
1!
1"
#2910
0!
0"
1#
#2915
1!
1"
b01110010 '
#2920
0!
0"
b01110010 ,
b01110010 /
b01001 (
0#
#2925
1!
1"
#2930
0!
0"
1$
b01001 %
#2935
1!
1"
#2940
0!
0"
b01001 +
0$
#2945
1!
1"
#2950
0!
0"
1#
