YAPP_labs/yapp/Lab14_scb_hbus/work/test.vcd
$date
	Wed Mar 12 15:29:40 2025
$end

$version
	Synopsys VCS version W-2024.09-SP1_Full64
$end

$timescale
	100ps
$end

$comment Csum: 1 ac32713885119083 $end


$scope module uvm_pkg $end
$var time 64 ! setting_offset $end
$var reg 32 " uvm_global_random_seed [31:0] $end
$var reg 32 # UVM_UNBOUNDED_CONNECTIONS [31:0] $end
$var reg 1 $ uvm_start_uvm_declarations $end
$var reg 32 % setting_verbosity [31:0] $end
$var reg 1 & is_verdi_set_verbosity_called $end
$var reg 1 ' is_uvm_factory_trace_checked $end
$var reg 1 ( is_verdi_trace_fac $end
$upscope $end


$scope module tb_top $end

$scope begin unnamed$$_vcs_2 $end
$upscope $end

$upscope $end


$scope module $unit $end
$upscope $end


$scope module _vcs_msglog $end
$var reg 32 ) _MSG_T [31:0] $end
$var reg 32 * _MSG_S [31:0] $end
$var reg 32 + _MSG_R [31:0] $end
$upscope $end


$scope module uvm_custom_install_recording $end
$var reg 32 , file_handle [31:0] $end
$var reg 32 - is_sanity_exist [31:0] $end

$scope begin unnamed$$_0 $end
$var reg 32 . verdi_tracing [31:0] $end

$scope begin unnamed$$_1 $end
$upscope $end


$scope begin unnamed$$_2 $end
$upscope $end

$upscope $end

$upscope $end


$scope module yapp_pkg $end
$var reg 2 / prev_addr [1:0] $end
$upscope $end


$scope module clock_and_reset_pkg $end
$upscope $end


$scope module hbus_pkg $end
$upscope $end


$scope module channel_pkg $end
$upscope $end


$scope module router_module_pkg $end
$upscope $end


$scope module hw_top $end
$var reg 32 0 clock_period [31:0] $end
$var reg 1 1 run_clock $end
$var reg 1 2 clock $end
$var reg 1 3 reset $end

$scope module in0 $end
$var wire 1 4 reset $end
$var reg 1 5 in_data_vld $end
$var reg 1 6 in_suspend $end
$var reg 8 7 in_data [7:0] $end
$var reg 1 8 monstart $end
$var reg 1 9 drvstart $end
$var wire 1 : clock $end
$upscope $end


$scope module clk_rst_if $end
$var reg 1 ; clock_cycle_count_reached $end
$var reg 1 < clock $end
$var reg 1 = reset $end
$var reg 1 > run_clock $end
$var reg 32 ? clock_period [31:0] $end
$var reg 32 @ reset_delay [31:0] $end
$var reg 32 A clock_cycles_to_count [31:0] $end

$scope task start_clock $end
$var reg 32 B input_clock_period [31:0] $end
$var reg 32 C input_reset_delay [31:0] $end
$var reg 1 D input_run_clock $end
$upscope $end


$scope task count_clocks $end
$var reg 32 E new_count [31:0] $end
$upscope $end


$scope task get_current_cycle_count $end
$var reg 32 F cycles_counted [31:0] $end
$upscope $end

$upscope $end


$scope module hbus $end
$var wire 1 G reset $end
$var reg 1 H hen $end
$var reg 1 I hwr_rd $end
$var reg 16 J haddr [15:0] $end
$var wire 8 K hdata_w [7:0] $end
$var reg 1 L monstart $end
$var reg 1 M masterstart $end
$var reg 1 N slavestart $end
$var wire 1 O clock $end
$var reg 8 P hdata [7:0] $end
$var reg 1 Q has_checks $end
$var reg 1 R has_coverage $end

$scope task master_send_to_dut $end
$var reg 16 S ha [15:0] $end
$var reg 1 T hrw [0:0] $end
$var reg 8 U hd [7:0] $end
$var reg 32 V wait_between_cycle [31:0] $end
$var reg 1 W random_delay $end
$upscope $end


$scope task collect_packet $end
$var reg 16 X ha [15:0] $end
$var reg 1 Y hrw [0:0] $end
$var reg 8 Z hd [7:0] $end
$upscope $end


$scope task master_reset $end
$upscope $end


$scope task slave_reset $end
$upscope $end


$scope task slave_send_to_dut $end
$var reg 16 [ ha [15:0] $end
$var reg 1 \ hrw [0:0] $end
$var reg 8 ] hd [7:0] $end
$var reg 8 ^ max_pktsize_reg [7:0] $end
$var reg 8 _ router_enable_reg [7:0] $end
$upscope $end

$upscope $end


$scope module chif0 $end
$var wire 1 ` clock $end
$var wire 1 a reset $end
$var reg 1 b data_vld $end
$var reg 1 c suspend $end
$var reg 8 d data [7:0] $end
$var reg 1 e pktstart $end
$upscope $end


$scope module chif1 $end
$var wire 1 f clock $end
$var wire 1 g reset $end
$var reg 1 h data_vld $end
$var reg 1 i suspend $end
$var reg 8 j data [7:0] $end
$var reg 1 k pktstart $end
$upscope $end


$scope module chif2 $end
$var wire 1 l clock $end
$var wire 1 m reset $end
$var reg 1 n data_vld $end
$var reg 1 o suspend $end
$var reg 8 p data [7:0] $end
$var reg 1 q pktstart $end
$upscope $end


$scope module clkgen $end
$var reg 1 r clock $end
$var wire 1 s run_clock $end
$var reg 32 t clock_period [31:0] $end
$upscope $end


$scope module dut $end
$var wire 1 u clock $end
$var wire 1 v reset $end
$var wire 1 w error $end
$var wire 8 x in_data [7:0] $end
$var wire 1 y in_data_vld $end
$var wire 1 z in_suspend $end
$var wire 8 { data_0 [7:0] $end
$var reg 1 | data_vld_0 $end
$var wire 1 } suspend_0 $end
$var wire 8 ~ data_1 [7:0] $end
$var reg 1 "! data_vld_1 $end
$var wire 1 "" suspend_1 $end
$var wire 8 "# data_2 [7:0] $end
$var reg 1 "$ data_vld_2 $end
$var wire 1 "% suspend_2 $end
$var wire 16 "& haddr [15:0] $end
$var wire 8 K hdata [7:0] $end
$var wire 1 "' hen $end
$var wire 1 "( hwr_rd $end
$var wire 1 ") full_0 $end
$var wire 1 "* full_1 $end
$var wire 1 "+ full_2 $end
$var wire 1 ", empty_0 $end
$var wire 1 "- empty_1 $end
$var wire 1 ". empty_2 $end
$var wire 1 "/ almost_empty_0 $end
$var wire 1 "0 almost_empty_1 $end
$var wire 1 "1 almost_empty_2 $end
$var wire 1 "2 fifo_empty $end
$var wire 1 "3 fifo_empty0 $end
$var wire 1 "4 fifo_empty1 $end
$var wire 1 "5 fifo_empty2 $end
$var wire 1 "6 hold_0 $end
$var wire 1 "7 hold_1 $end
$var wire 1 "8 hold_2 $end
$var wire 1 "9 hold $end
$var wire 3 ": write_enb [2:0] $end
$var wire 2 "; addr [1:0] $end
$var wire 8 "< router_enable [7:0] $end
$var wire 6 "= max_pkt_size [5:0] $end
$var wire 8 "> chan_data [7:0] $end
$var wire 8 "? parity_err_cnt [7:0] $end
$var wire 8 "@ len_err_cnt [7:0] $end
$var wire 8 "A ill_addr_cnt [7:0] $end
$var wire 8 "B addr0_cnt [7:0] $end
$var wire 8 "C addr1_cnt [7:0] $end
$var wire 8 "D addr2_cnt [7:0] $end
$var wire 5 "E resets [4:0] $end
$var wire 4 "F intr_stat [3:0] $end
$var wire 4 "G intr_ien [3:0] $end
$var wire 4 "H intr_clr [3:0] $end
$var wire 7 "I pkt_addr [6:0] $end
$var wire 8 "J pkt_data [7:0] $end
$var wire 8 "K parity_out [7:0] $end
$var wire 1 "L parity_done $end
$var wire 1 "M pkt_start $end
$var wire 6 "N last_pkt_size [5:0] $end

$scope module reg_file $end
$var wire 1 u clock $end
$var wire 1 v reset $end
$var wire 1 "( wr_rd $end
$var wire 1 "' en $end
$var wire 16 "& addr [15:0] $end
$var wire 8 K data [7:0] $end
$var wire 8 "? parity_err_cnt [7:0] $end
$var wire 8 "@ len_err_cnt [7:0] $end
$var wire 8 "A ill_addr_cnt [7:0] $end
$var wire 8 "B addr0_cnt [7:0] $end
$var wire 8 "C addr1_cnt [7:0] $end
$var wire 8 "D addr2_cnt [7:0] $end
$var wire 4 "F int_stat [3:0] $end
$var wire 7 "I pkt_addr [6:0] $end
$var wire 8 "J pkt_data [7:0] $end
$var wire 8 "K parity [7:0] $end
$var wire 6 "N last_pkt_size [5:0] $end
$var wire 1 "L parity_done $end
$var wire 1 "M pkt_start $end
$var wire 4 "G int_ien_reg [3:0] $end
$var wire 4 "H int_clr [3:0] $end
$var wire 5 "E rst_reg [4:0] $end
$var wire 6 "= max_pkt_len [5:0] $end
$var reg 8 "O reset_reg [7:0] $end
$var reg 1 "P rst_yapp_fld $end
$var reg 1 "Q rst_err_cnts_fld $end
$var reg 1 "R rst_addr_cnts_fld $end
$var reg 1 "S rst_ien_stat_fld $end
$var reg 1 "T rst_ram_fld $end
$var reg 1 "U rst_prot_err_fld $end
$var reg 8 "V ctrl_reg [7:0] $end
$var reg 6 "W pkt_len_fld [5:0] $end
$var reg 1 "X router_en_fld $end
$var reg 1 "Y parity_err_cnt_en_fld $end
$var reg 1 "Z len_err_cnt_en_fld $end
$var reg 1 "[ addr0_cnt_en_fld $end
$var reg 1 "\ addr1_cnt_en_fld $end
$var reg 1 "] addr2_cnt_en_fld $end
$var reg 1 "^ illegal_addr_cnt_en_fld $end
$var reg 3 "_ ien_reg [2:0] $end
$var reg 1 "` illegal_pkt_addr_ien_fld $end
$var reg 1 "a ovrsized_pkt_ien_fld $end
$var reg 1 "b parity_ien_fld $end
$var reg 3 "c int_reg [2:0] $end
$var reg 1 "d illegal_pkt_addr_int_fld $end
$var reg 1 "e ovrsized_pkt_int_fld $end
$var reg 1 "f parity_int_fld $end
$var reg 8 "g parity_err_cnt_reg [7:0] $end
$var reg 8 "h max_pkt_len_err_cnt_reg [7:0] $end
$var reg 8 "i illegal_addr_cnt_reg [7:0] $end
$var reg 8 "j addr0_cnt_reg [7:0] $end
$var reg 8 "k addr1_cnt_reg [7:0] $end
$var reg 8 "l addr2_cnt_reg [7:0] $end
$var reg 8 "m last_pkt_size_reg [7:0] $end
$var reg 8 "n int_data [7:0] $end
$var reg 8 "o int_en_reg [7:0] $end
$var reg 4 "p int_clr_int [3:0] $end
$var reg 7 "q pkt_addr_int [6:0] $end
$var reg 8 "r pkt_data_int [7:0] $end

$scope task reset_mem $end
$var integer 32 "s i $end
$upscope $end

$var reg 8 "t en_reg [7:0] $end
$upscope $end


$scope module in_port $end
$var wire 1 u clock $end
$var wire 1 v reset $end
$var wire 1 "9 hold $end
$var wire 1 "2 fifo_empty $end
$var reg 1 "u error $end
$var wire 5 "E resets [4:0] $end
$var wire 6 "= max_pkt_size [5:0] $end
$var wire 4 "H intr_clr [3:0] $end
$var wire 6 "N last_pkt_size [5:0] $end
$var wire 8 "? parity_err_cnt [7:0] $end
$var wire 8 "@ len_err_cnt [7:0] $end
$var wire 8 "A ill_addr_cnt [7:0] $end
$var wire 4 "F intr_stat [3:0] $end
$var wire 4 "G intr_ien [3:0] $end
$var wire 8 "B addr0_cnt [7:0] $end
$var wire 8 "C addr1_cnt [7:0] $end
$var wire 8 "D addr2_cnt [7:0] $end
$var wire 7 "I pkt_addr [6:0] $end
$var wire 8 "J pkt_data [7:0] $end
$var wire 8 "K parity_out [7:0] $end
$var wire 1 "L parity_done $end
$var wire 1 "M pkt_start $end
$var wire 8 x in_data [7:0] $end
$var wire 1 y in_data_vld $end
$var wire 1 z in_suspend $end
$var wire 2 "; addr [1:0] $end
$var wire 8 "> chan_data [7:0] $end
$var wire 3 ": write_enb [2:0] $end
$var reg 3 "v write_enb_r [2:0] $end
$var reg 1 "w fsm_write_enb $end
$var reg 2 "x state_r [1:0] $end
$var reg 2 "y state [1:0] $end
$var reg 8 "z parity [7:0] $end
$var reg 1 "{ sus_data_in $end
$var reg 2 "| dest_chan_r [1:0] $end
$var reg 8 "} parity_err_cnt_int [7:0] $end
$var reg 8 "~ len_err_cnt_int [7:0] $end
$var reg 8 #! ill_addr_cnt_int [7:0] $end
$var reg 8 #" addr0_cnt_int [7:0] $end
$var reg 8 ## addr1_cnt_int [7:0] $end
$var reg 8 #$ addr2_cnt_int [7:0] $end
$var reg 4 #% intr_stat_int [3:0] $end
$var reg 7 #& pkt_addr_int [6:0] $end
$var reg 8 #' pkt_data_int [7:0] $end
$var reg 1 #( parity_done_int $end
$var reg 8 #) parity_out_int [7:0] $end
$var reg 1 #* pkt_start_int $end
$var reg 1 #+ illegal_addr_int $end
$var reg 8 #, last_pkt_size_int [7:0] $end
$var reg 1 #- parity_intr_int $end
$var reg 1 #. illegal_pkt_addr_intr_int $end
$var reg 1 #/ ovrsized_pkt_intr_int $end
$var wire 2 #0 dest_chan [1:0] $end
$var wire 1 #1 chan0 $end
$var wire 1 #2 chan1 $end
$var wire 1 #3 chan2 $end
$var wire 1 #4 header_valid $end
$var reg 8 #5 router_enable [7:0] $end

$scope begin fsm_state $end
$upscope $end


$scope begin parity_calc $end
$upscope $end

$upscope $end


$scope module queue_0 $end
$var wire 1 u clock $end
$var wire 1 v reset $end
$var wire 1 #6 write_enb $end
$var wire 1 #7 read_enb $end
$var wire 8 "> in_data [7:0] $end
$var wire 5 "E resets [4:0] $end
$var reg 8 #8 data_out [7:0] $end
$var wire 1 ", empty $end
$var wire 1 "/ almost_empty $end
$var wire 1 ") full $end
$var reg 1 #9 tmp_empty $end
$var reg 1 #: tmp_full $end
$var reg 4 #; write_ptr [3:0] $end
$var reg 4 #< read_ptr [3:0] $end

$scope begin fifo_core $end
$upscope $end

$upscope $end


$scope module queue_1 $end
$var wire 1 u clock $end
$var wire 1 v reset $end
$var wire 1 #= write_enb $end
$var wire 1 #> read_enb $end
$var wire 8 "> in_data [7:0] $end
$var wire 5 "E resets [4:0] $end
$var reg 8 #? data_out [7:0] $end
$var wire 1 "- empty $end
$var wire 1 "0 almost_empty $end
$var wire 1 "* full $end
$var reg 1 #@ tmp_empty $end
$var reg 1 #A tmp_full $end
$var reg 4 #B write_ptr [3:0] $end
$var reg 4 #C read_ptr [3:0] $end

$scope begin fifo_core $end
$upscope $end

$upscope $end


$scope module queue_2 $end
$var wire 1 u clock $end
$var wire 1 v reset $end
$var wire 1 #D write_enb $end
$var wire 1 #E read_enb $end
$var wire 8 "> in_data [7:0] $end
$var wire 5 "E resets [4:0] $end
$var reg 8 #F data_out [7:0] $end
$var wire 1 ". empty $end
$var wire 1 "1 almost_empty $end
$var wire 1 "+ full $end
$var reg 1 #G tmp_empty $end
$var reg 1 #H tmp_full $end
$var reg 4 #I write_ptr [3:0] $end
$var reg 4 #J read_ptr [3:0] $end

$scope begin fifo_core $end
$upscope $end

$upscope $end

$upscope $end

$upscope $end

$enddefinitions $end

#0
$dumpvars
1'
0&
0(
1$
bxxxxxxxxxxxxxxxxxxxxxxxxxxxxxxxxxxxxxxxxxxxxxxxxxxxxxxxxxxxxxxxx !
b11111111111111111111111111111111 #
b00000000000000000000000000000000 %
b01010100011000101110101100111110 "
b00000000000000000000000000000000 +
b00000000000000000000000000000000 *
b00000000000000000000000000000000 )
b00000000000000000000000000000000 ,
b00000000000000000000000000000000 -
b00000000000000000000000000000000 .
b00 /
0r
b00000000000000000000000000001010 t
b00000000000000000000000000001010 0
bxxxxxxxx 7
1D
b00000000000000000000000000001010 ?
b00000000000000000000000000000000 A
b00000000000000000000000000000101 @
b00000000000000000000000000000000 E
b00000000000000000000000000000000 F
b00000000000000000000000000001010 B
b00000000000000000000000000000101 C
0Y
0T
0W
0\
bxxxxxxxx P
bxxxxxxxxxxxxxxxx J
b0000000000000000 X
b00000000 Z
b0000000000000000 S
b00000000 U
b00000000000000000000000000000000 V
b0000000000000000 [
b00000000 ]
b00000000 ^
b00000000 _
bxxxxxxxx d
bxxxxxxxx j
bxxxxxxxx p
x"[
x"\
x"]
x#1
x#2
x#3
x|
x"!
x"$
x"2
x"3
x"4
x"5
x"w
x#4
x"9
x"6
x"7
x"8
x"^
x#+
x"`
x"d
x#.
x"u
x"Z
x"a
x"e
x#/
x"L
x#(
x"Y
x"b
x"f
x#-
x"M
x#*
x"X
x"R
x"Q
x"S
x"U
x"T
x"P
x"{
bxxxx0xxx "t
bxxxx0xxx #5
bxx ";
bxxxxxxxx "B
bxxxxxxxx #"
bxxxxxxxx "j
bxxxxxxxx "C
bxxxxxxxx ##
bxxxxxxxx "k
bxxxxxxxx "D
bxxxxxxxx #$
bxxxxxxxx "l
bxxxxxxxx "V
bxx #0
bxx "|
bxxx "_
bxxxxxxxx "A
bxxxxxxxx #!
bxxxxxxxx "i
bxxxxxxx #&
bxxxxxxxx #'
bxxxx "p
bxxxxxxxx "n
bxxxxxxxx "o
bxxx "c
bxxxx "H
b0xxx "G
bxxxx "F
bxxxx #%
bxxxxxx "N
bxxxxxxxx #,
b00xxxxxx "m
bxxxxxxxx "@
bxxxxxxxx "~
bxxxxxxxx "h
bxxxxxx "=
bxxxxxxxx "z
bxxxxxxxx "?
bxxxxxxxx "}
bxxxxxxxx "g
bxxxxxxxx "K
bxxxxxxxx #)
bxxxxxxx "I
bxxxxxxx "q
bxxxxxxxx "J
bxxxxxxxx "r
bxxxxxx "W
bxxxxxxxxxxxxxxxxxxxxxxxxxxxxxxxx "s
b000xxxxx "O
bxxxx0xxx "<
bxx "y
bxx "x
bxxx "v
x#9
x#:
bxxxxxxxx #8
bxxxx #<
bxxxx #;
x#@
x#A
bxxxxxxxx #?
bxxxx #C
bxxxx #B
x#G
x#H
bxxxxxxxx #F
bxxxx #J
bxxxx #I
0=
03
1>
11
0:
0O
0`
0f
0l
0u
04
0G
0a
0g
0m
0v
xz
x",
x"/
x")
x"-
x"0
x"*
x".
x"1
x"+
02
1s
0<
bxxxxxxxx x
bxxxxxxxx {
bxxxxxxxx ~
bxxxxxxxx "#
bxxxxxxxxxxxxxxxx "&
xy
x}
x""
x"%
x"'
x"(
xw
09
x5
x6
08
0;
1Q
1R
xH
xI
0M
0L
0N
bxxxxxxxx K
xb
0e
xc
xh
0k
xi
xn
0q
xo
bxxx ":
bxxxxx "E
bxxxxxxxx ">
x#6
x#=
x#D
x#7
x#>
x#E
$end
#50
1r
12
1:
1O
1`
1f
1l
1u
1<
b00000000000000000000000000000100 @
1=
13
14
1G
1a
1g
1m
1v
b00000000000000000000000001000010 "s
1c
1}
0#7
1i
1""
0#>
1o
1"%
0#E
0|
0b
0"!
0h
0"$
0n
b00000000 "n
b111111 "W
b111111 "=
b00111111 "V
1"X
0"Y
0"Z
0"[
0"\
0"]
0"^
b000 "_
0"`
0"a
0"b
0"d
0"e
0"f
b0000 "p
b0000 "H
b00000000 "g
b00000000 "h
b00000000 "i
b00000000 "j
b00000000 "k
b00000000 "l
0"T
0"S
0"R
0"Q
0"U
b00 "x
b00 "|
b00000000 #"
b00000000 "B
b00000000 ##
b00000000 "C
b00000000 #$
b00000000 "D
b00000000 "~
b00000000 "@
b00000000 #!
b00000000 "A
b00000000 "}
b00000000 "?
b0000 #%
b0000 "F
b0000000 #&
b0000000 "I
b00000000 #'
b00000000 "J
0#+
b00000000 #,
b000000 "N
0#-
0#.
0#/
b00000000 "z
0#(
0"L
0"u
0w
0#:
0")
0"6
1#9
1",
1"3
b0000 #;
b0000 #<
0#A
0"*
0"7
1#@
1"-
1"4
b0000 #B
b0000 #C
0#H
0"+
0"8
1#G
1".
1"5
b0000 #I
b0000 #J
05
0y
0#4
bzzzzzzzz 7
bzzzzzzzz x
bzzzzzzzz ">
0H
0"'
bzzzzzzzz P
bzzzzzzzzzzzzzzzz J
bzzzzzzzzzzzzzzzz "&
0I
0"(
0"w
0#D
0#=
0#6
0"{
0z
06
b00 "y
b00000001 "t
b00000001 "<
b00000001 #5
b0000 "G
b0000x "E
0"/
0"0
0"1
0"9
1"2
b00 #0
0#3
0#2
1#1
b00 ";
b00000000 K
b000 ":
0#*
0"M
#100
0r
02
0:
0O
0`
0f
0l
0u
0<
bzzzzzzzz "n
bzzzzzzzz K
b00000000 "m
b0000000x "O
b00000000 "n
b00000000 K
#150
1r
12
1:
1O
1`
1f
1l
1u
1<
b00000000000000000000000000000011 @
#200
0r
02
0:
0O
0`
0f
0l
0u
0<
bzzzzzzzz "n
bzzzzzzzz K
b00000000 "n
b00000000 K
#250
1r
12
1:
1O
1`
1f
1l
1u
1<
b00000000000000000000000000000010 @
#300
0r
02
0:
0O
0`
0f
0l
0u
0<
bzzzzzzzz "n
bzzzzzzzz K
b00000000 "n
b00000000 K
#350
1r
12
1:
1O
1`
1f
1l
1u
1<
b00000000000000000000000000000001 @
#400
0r
02
0:
0O
0`
0f
0l
0u
0<
bzzzzzzzz "n
bzzzzzzzz K
b00000000 "n
b00000000 K
#450
1r
12
1:
1O
1`
1f
1l
1u
1<
b00000000000000000000000000000000 @
#500
0r
02
0:
0O
0`
0f
0l
0u
0<
bzzzzzzzz "n
bzzzzzzzz K
b00000000 "n
b00000000 K
#550
1r
12
1:
1O
1`
1f
1l
1u
1<
0=
03
04
0G
0a
0g
0m
0v
#600
0r
02
0:
0O
0`
0f
0l
0u
0<
bzzzzzzzz "n
bzzzzzzzz K
#650
1r
12
1:
1O
1`
1f
1l
1u
1<
#700
0r
02
0:
0O
0`
0f
0l
0u
0<
19
15
1y
1#4
b00001000 7
b00001000 x
b00001000 ">
1"w
1#6
b01 "y
b00 #0
b001 ":
#750
1r
12
1:
1O
1`
1f
1l
1u
1<
18
#800
0r
02
0:
0O
0`
0f
0l
0u
0<
b01 "x
0#4
b00001000 "z
b00001000 #'
b00001000 "J
b00000000 #)
b00000000 "K
b00000010 #,
b000010 "N
1#*
1"M
0#9
0",
0"3
b0001 #;
b10001100 7
b10001100 x
b10001100 ">
0"2
#850
1r
12
1:
1O
1`
1f
1l
1u
1<
1|
1b
b00001000 #8
b00001000 {
b00001000 d
#900
0r
02
0:
0O
0`
0f
0l
0u
0<
b00000010 "m
b10000100 "z
b10001100 #'
b10001100 "J
b00001000 #)
b00001000 "K
b0000001 #&
b0000001 "I
b0010 #;
b11110100 7
b11110100 x
b11110100 ">
#950
1r
12
1:
1O
1`
1f
1l
1u
1<
#1000
0r
02
0:
0O
0`
0f
0l
0u
0<
b01110000 "z
b11110100 #'
b11110100 "J
b10000100 #)
b10000100 "K
b0000010 #&
b0000010 "I
b0011 #;
05
0y
b01110000 7
b01110000 x
b01110000 ">
b00 "y
#1050
1r
12
1:
1O
1`
1f
1l
1u
1<
08
#1100
0r
02
0:
0O
0`
0f
0l
0u
0<
09
b00 "x
b00000000 "z
b0000000 #&
b0000000 "I
b00000000 #'
b00000000 "J
0#*
0"M
b0100 #;
bzzzzzzzz 7
bzzzzzzzz x
bzzzzzzzz ">
0"w
0#6
b000 ":
#1150
1r
12
1:
1O
1`
1f
1l
1u
1<
#1200
0r
02
0:
0O
0`
0f
0l
0u
0<
#1250
1r
12
1:
1O
1`
1f
1l
1u
1<
#1300
0r
02
0:
0O
0`
0f
0l
0u
0<
#1350
1r
12
1:
1O
1`
1f
1l
1u
1<
#1400
0r
02
0:
0O
0`
0f
0l
0u
0<
#1450
1r
12
1:
1O
1`
1f
1l
1u
1<
#1500
0r
02
0:
0O
0`
0f
0l
0u
0<
#1550
1r
12
1:
1O
1`
1f
1l
1u
1<
#1600
0r
02
0:
0O
0`
0f
0l
0u
0<
#1650
1r
12
1:
1O
1`
1f
1l
1u
1<
#1700
0r
02
0:
0O
0`
0f
0l
0u
0<
0c
0}
1#7
#1750
1r
12
1:
1O
1`
1f
1l
1u
1<
1e
#1800
0r
02
0:
0O
0`
0f
0l
0u
0<
19
b0001 #<
15
1y
1#4
b00011001 7
b00011001 x
b00011001 ">
1"{
1z
16
b01 #0
1#2
0#1
b01 ";
1"3
1"2
1"w
1#=
0"{
0z
06
b01 "y
b010 ":
#1850
1r
12
1:
1O
1`
1f
1l
1u
1<
18
b10001100 #8
b10001100 {
b10001100 d
#1900
0r
02
0:
0O
0`
0f
0l
0u
0<
b01 "x
0#4
b01 "|
b00011001 "z
b00011001 #'
b00011001 "J
b00000000 #)
b00000000 "K
b00000110 #,
b000110 "N
1#*
1"M
b0010 #<
0#@
0"-
0"4
b0001 #B
b11111011 7
b11111011 x
b11111011 ">
b01 #0
0"2
#1950
1r
12
1:
1O
1`
1f
1l
1u
1<
1"!
1h
b11110100 #8
b11110100 {
b11110100 d
b00011001 #?
b00011001 ~
b00011001 j
#2000
0r
02
0:
0O
0`
0f
0l
0u
0<
b00000110 "m
b11100010 "z
b11111011 #'
b11111011 "J
b00011001 #)
b00011001 "K
b0000001 #&
b0000001 "I
b0011 #<
b0010 #B
b00001010 7
b00001010 x
b00001010 ">
1"/
#2050
1r
12
1:
1O
1`
1f
1l
1u
1<
0|
0b
b01110000 #8
b01110000 {
b01110000 d
#2100
0r
02
0:
0O
0`
0f
0l
0u
0<
b11101000 "z
b00001010 #'
b00001010 "J
b11100010 #)
b11100010 "K
b0000010 #&
b0000010 "I
b0100 #<
1#9
1",
b0011 #B
b10001000 7
b10001000 x
b10001000 ">
1c
1}
0#7
0"/
#2150
1r
12
1:
1O
1`
1f
1l
1u
1<
0e
